{
    "name": "ehr-uit",
    "x-type": "hlfv1",
    "version": "1.0.0",
    "peers": {
        "peer0.hospital1.ehr.uit.edu.vn": {
            "url": "grpc://localhost:7051"
        }
    },
    "certificateAuthorities": {
        "ca.hospital1.ehr.uit.edu.vn": {
            "url": "http://localhost:7054",
            "caName": "ca.hospital1.ehr.uit.edu.vn"
        }
    },
    "orderers": {
        "orderer.ehr.uit.edu.vn": {
            "url": "grpc://localhost:7050"
        }
    },
    "organizations": {
        "Hospital1": {
            "mspid": "Hospital1MSP",
            "peers": [
                "peer0.hospital1.ehr.uit.edu.vn"
            ],
            "certificateAuthorities": [
                "ca.hospital1.ehr.uit.edu.vn"
            ]
        }
    },
    "channels": {
        "ehrchannel": {
            "orderers": [
                "orderer.ehr.uit.edu.vn"
            ],
            "peers": {
                "peer0.hospital1.ehr.uit.edu.vn": {
                    "endorsingPeer": true,
                    "chaincodeQuery": true,
                    "eventSource": true
                }
            }
        }
    },
    "client": {
        "organization": "Hospital1",
        "connection": {
            "timeout": {
                "peer": {
                    "endorser": "300",
                    "eventHub": "300",
                    "eventReg": "300"
                },
                "orderer": "300"
            }
        }
    }
}